@startuml

skinparam SwimlaneBorderColor transparent

|#Lime|Developer|
|#aqua|Automation\nTools|
|#AntiqueWhite|Technical\nWriter|
|#DarkSeaGreen|Anyone|
start

:Create\nChange Request;

|#AntiqueWhite|Technical\nWriter|

partition Triage{
:Review Change;

:Assign\nfor Work;
}

:Create workspace\nfor change;
floating note 
    version control
    branch
end note

|#Lime|Developer|


repeat
repeat
partition Change {
    :Edit;

    :Review locally;

    :Check In change;

    :Create Merge Request;
}

    |#aqua|Automation\nTools|
partition Verificaiton {
    :Auto Verify\nMerge Request;
}

repeat while (auto verfication) is (fails) 

    |Technical\nWriter|
partition  Verificaiton {
    :Manually Review\nMerge Request;
}
repeat while (verfication) is (fails) 

:Approve Merge Request;


|Automation\nTools|

partition Deploy {

:Auto Merge;

:Auto Verify Content;

:Auto Build Content;

:Auto Deploy Content;

}

stop

@enduml